{
  "formatVersion": 1,
  "database": {
    "version": 1,
    "identityHash": "e798e7fdd4784d0f8591f93270bf7420",
    "entities": [
      {
        "tableName": "Object",
        "createSql": "CREATE TABLE IF NOT EXISTS `${TABLE_NAME}` ()",
        "fields": [],
        "primaryKey": {
          "columnNames": [],
          "autoGenerate": false
        },
        "indices": [],
        "foreignKeys": []
      }
    ],
    "setupQueries": [
      "CREATE TABLE IF NOT EXISTS room_master_table (id INTEGER PRIMARY KEY,identity_hash TEXT)",
      "INSERT OR REPLACE INTO room_master_table (id,identity_hash) VALUES(42, \"e798e7fdd4784d0f8591f93270bf7420\")"
    ]
  }
}